Fri Jul 10 2020 15:00:59 GMT-0300 (Brasilia Standard Time),Error: data must be a string and salt must either be a salt string or a number of rounds,
Fri Jul 10 2020 15:01:10 GMT-0300 (Brasilia Standard Time),SequelizeDatabaseError: null value in column "nome" violates not-null constraint,
Fri Jul 10 2020 15:04:11 GMT-0300 (Brasilia Standard Time),ReferenceError: senha_hash is not defined,
Fri Jul 10 2020 15:04:32 GMT-0300 (Brasilia Standard Time),SequelizeValidationError: string violation: hash_senha cannot be an array or an object,
Fri Jul 10 2020 15:04:49 GMT-0300 (Brasilia Standard Time),SequelizeValidationError: string violation: hash_senha cannot be an array or an object,
Fri Jul 10 2020 15:05:10 GMT-0300 (Brasilia Standard Time),Error: data and salt arguments required,
Fri Jul 10 2020 15:13:47 GMT-0300 (Brasilia Standard Time),TypeError: user.checkPassword is not a function,
Fri Jul 10 2020 15:14:44 GMT-0300 (Brasilia Standard Time),TypeError: user.checkPassword is not a function,
Fri Jul 10 2020 15:15:22 GMT-0300 (Brasilia Standard Time),TypeError: user.checkPassword is not a function,
Fri Jul 10 2020 15:15:28 GMT-0300 (Brasilia Standard Time),Error: data and hash arguments required,
Fri Jul 10 2020 15:15:53 GMT-0300 (Brasilia Standard Time),ReferenceError: email is not defined,
Fri Jul 10 2020 15:18:58 GMT-0300 (Brasilia Standard Time),ReferenceError: Cannot access 'matricula' before initialization,
Fri Jul 10 2020 15:19:18 GMT-0300 (Brasilia Standard Time),ReferenceError: Cannot access 'matricula' before initialization,
Fri Jul 10 2020 15:20:19 GMT-0300 (Brasilia Standard Time),ReferenceError: name is not defined,
Mon Jul 13 2020 15:10:09 GMT-0300 (Brasilia Standard Time),TypeError: Cannot read property 'length' of undefined,
Mon Jul 13 2020 15:22:44 GMT-0300 (Brasilia Standard Time),SequelizeDatabaseError: column "a" does not exist,
Mon Jul 13 2020 15:25:39 GMT-0300 (Brasilia Standard Time),Error: Include unexpected. Element has to be either a Model, an Association or an object.,
Mon Jul 13 2020 15:26:17 GMT-0300 (Brasilia Standard Time),TypeError: include.model.getTableName is not a function,
Mon Jul 13 2020 15:26:30 GMT-0300 (Brasilia Standard Time),SequelizeEagerLoadingError: Pop is not associated to Pop!,
Mon Jul 13 2020 15:58:08 GMT-0300 (Brasilia Standard Time),ReferenceError: ok is not defined,
Tue Jul 14 2020 10:59:07 GMT-0300 (Brasilia Standard Time),ReferenceError: i is not defined,
Tue Jul 14 2020 10:59:19 GMT-0300 (Brasilia Standard Time),ReferenceError: pop is not defined,
Mon Jul 27 2020 14:49:50 GMT-0300 (Brasilia Standard Time),SequelizeDatabaseError: column "created_at" of relation "pops" does not exist,
Mon Jul 27 2020 14:50:57 GMT-0300 (Brasilia Standard Time),TypeError: Converting circular structure to JSON
    --> starting at object with constructor 'Client_PG'
    |     property 'valueForUndefined' -> object with constructor 'Raw'
    --- property 'client' closes the circle,
Mon Jul 27 2020 14:51:17 GMT-0300 (Brasilia Standard Time),TypeError: Converting circular structure to JSON
    --> starting at object with constructor 'Client_PG'
    |     property 'valueForUndefined' -> object with constructor 'Raw'
    --- property 'client' closes the circle,
Mon Jul 27 2020 14:51:23 GMT-0300 (Brasilia Standard Time),TypeError: Converting circular structure to JSON
    --> starting at object with constructor 'Client_PG'
    |     property 'valueForUndefined' -> object with constructor 'Raw'
    --- property 'client' closes the circle,
Mon Jul 27 2020 14:51:54 GMT-0300 (Brasilia Standard Time),TypeError: Converting circular structure to JSON
    --> starting at object with constructor 'Client_PG'
    |     property 'valueForUndefined' -> object with constructor 'Raw'
    --- property 'client' closes the circle,
Mon Jul 27 2020 15:14:03 GMT-0300 (Brasilia Standard Time),SequelizeDatabaseError: malformed array literal: "[{"ok":true}]",
Mon Jul 27 2020 15:18:34 GMT-0300 (Brasilia Standard Time),TypeError: Cannot read property 'createTable' of undefined,
Mon Jul 27 2020 15:18:58 GMT-0300 (Brasilia Standard Time),TypeError: Cannot read property 'createTable' of undefined,
Mon Jul 27 2020 15:19:55 GMT-0300 (Brasilia Standard Time),ReferenceError: pop is not defined,
Mon Jul 27 2020 15:20:10 GMT-0300 (Brasilia Standard Time),TypeError: Converting circular structure to JSON
    --> starting at object with constructor 'Client_PG'
    |     property 'valueForUndefined' -> object with constructor 'Raw'
    --- property 'client' closes the circle,
Mon Jul 27 2020 15:20:31 GMT-0300 (Brasilia Standard Time),TypeError: Converting circular structure to JSON
    --> starting at object with constructor 'Client_PG'
    |     property 'valueForUndefined' -> object with constructor 'Raw'
    --- property 'client' closes the circle,
Mon Jul 27 2020 15:22:39 GMT-0300 (Brasilia Standard Time),TypeError: Converting circular structure to JSON
    --> starting at object with constructor 'Client_PG'
    |     property 'valueForUndefined' -> object with constructor 'Raw'
    --- property 'client' closes the circle,
Mon Jul 27 2020 15:23:16 GMT-0300 (Brasilia Standard Time),TypeError: Converting circular structure to JSON
    --> starting at object with constructor 'Client_PG'
    |     property 'valueForUndefined' -> object with constructor 'Raw'
    --- property 'client' closes the circle,
Mon Jul 27 2020 15:23:37 GMT-0300 (Brasilia Standard Time),TypeError: Converting circular structure to JSON
    --> starting at object with constructor 'Client_PG'
    |     property 'valueForUndefined' -> object with constructor 'Raw'
    --- property 'client' closes the circle,
Mon Jul 27 2020 15:23:54 GMT-0300 (Brasilia Standard Time),TypeError: Converting circular structure to JSON
    --> starting at object with constructor 'Client_PG'
    |     property 'valueForUndefined' -> object with constructor 'Raw'
    --- property 'client' closes the circle,
Mon Jul 27 2020 16:27:02 GMT-0300 (Brasilia Standard Time),ReferenceError: datatypes is not defined,
Mon Jul 27 2020 16:27:11 GMT-0300 (Brasilia Standard Time),ReferenceError: datatypes is not defined,
Mon Jul 27 2020 16:33:42 GMT-0300 (Brasilia Standard Time),ReferenceError: datatypes is not defined,
Mon Jul 27 2020 16:36:01 GMT-0300 (Brasilia Standard Time),ReferenceError: datatypes is not defined,
Mon Jul 27 2020 16:46:49 GMT-0300 (Brasilia Standard Time),ReferenceError: array is not defined,
Mon Jul 27 2020 16:56:09 GMT-0300 (Brasilia Standard Time),RangeError [ERR_HTTP_INVALID_STATUS_CODE]: Invalid status code: {},
Mon Jul 27 2020 16:59:24 GMT-0300 (Brasilia Standard Time),TypeError: item.map is not a function,
Mon Jul 27 2020 16:59:42 GMT-0300 (Brasilia Standard Time),TypeError: item.map is not a function,
Mon Jul 27 2020 16:59:54 GMT-0300 (Brasilia Standard Time),TypeError: item.map is not a function,
Mon Jul 27 2020 17:00:14 GMT-0300 (Brasilia Standard Time),TypeError: item.map is not a function,
Mon Jul 27 2020 17:06:03 GMT-0300 (Brasilia Standard Time),TypeError: item.forEach is not a function,
Mon Jul 27 2020 17:11:26 GMT-0300 (Brasilia Standard Time),TypeError: Cannot read property 'map' of undefined,
Mon Jul 27 2020 19:38:59 GMT-0300 (Brasilia Standard Time),TypeError: Cannot read property 'defaultTo' of undefined,
Mon Jul 27 2020 19:53:44 GMT-0300 (Brasilia Standard Time),error: create table "pericia_veiculo" ("id" serial primary key, "undefined" varchar(255), "undefined" varchar(255), "undefined" varchar(255), "undefined" varchar(255), "undefined" varchar(255), "undefined" varchar(255), "undefined" varchar(255), "undefined" varchar(255), "undefined" varchar(255), "undefined" varchar(255), "undefined" varchar(255), "undefined" varchar(255), "undefined" varchar(255), "undefined" varchar(255), "undefined" varchar(255), "undefined" varchar(255), "undefined" varchar(255), "undefined" varchar(255), "undefined" varchar(255), "undefined" varchar(255), "undefined" varchar(255), "undefined" varchar(255), "created_at" timestamptz default CURRENT_TIMESTAMP, "updated_at" timestamptz default CURRENT_TIMESTAMP) - column "undefined" specified more than once,
Mon Jul 27 2020 20:02:46 GMT-0300 (Brasilia Standard Time),error: create table "pericia_veiculo" ("id" serial primary key, "undefined" varchar(255), "undefined" varchar(255), "undefined" varchar(255), "undefined" varchar(255), "undefined" varchar(255), "undefined" varchar(255), "undefined" varchar(255), "undefined" varchar(255), "undefined" varchar(255), "undefined" varchar(255), "undefined" varchar(255), "undefined" varchar(255), "undefined" varchar(255), "undefined" varchar(255), "undefined" varchar(255), "undefined" varchar(255), "undefined" varchar(255), "undefined" varchar(255), "undefined" varchar(255), "undefined" varchar(255), "undefined" varchar(255), "undefined" varchar(255), "created_at" timestamptz default CURRENT_TIMESTAMP, "updated_at" timestamptz default CURRENT_TIMESTAMP) - column "undefined" specified more than once,
Thu Aug 06 2020 14:52:19 GMT-0300 (Brasilia Standard Time),SequelizeDatabaseError: column "pop_name" does not exist,
Thu Aug 06 2020 15:13:09 GMT-0300 (Brasilia Standard Time),error: create table "pericia_veiculo" ("id" serial primary key, "reg_criminalistica" varchar(255), "num_despacho" varchar(255), "data_despacho" varchar(255), "num_siapro" varchar(255), "autor_requisita" varchar(255), "membro_adicional" varchar(255), "diretor_inc" varchar(255), "data_inicio" varchar(255), "data_final" varchar(255), "local_pericia" varchar(255), "imagem_local" varchar(255), "info_veiculo" varchar(255), "imagem_frontal" varchar(255), "imagem_lateral" varchar(255), "imagem_posterior" varchar(255), "imagem_chassi" varchar(255), "imagem_motor" varchar(255), "imagem_adicional1" varchar(255), "imagem_adicional2" varchar(255), "imagem_adicional3" varchar(255), "imagem_adicional4" varchar(255), "imagem_adicional5" varchar(255), "created_at" timestamptz default CURRENT_TIMESTAMP, "updated_at" timestamptz default CURRENT_TIMESTAMP) - relation "pericia_veiculo" already exists,
Thu Aug 06 2020 15:17:16 GMT-0300 (Brasilia Standard Time),error: create table "pericia_veiculo" ("id" serial primary key, "reg_criminalistica" varchar(255), "num_despacho" varchar(255), "data_despacho" varchar(255), "num_siapro" varchar(255), "autor_requisita" varchar(255), "membro_adicional" varchar(255), "diretor_inc" varchar(255), "data_inicio" varchar(255), "data_final" varchar(255), "local_pericia" varchar(255), "imagem_local" varchar(255), "info_veiculo" varchar(255), "imagem_frontal" varchar(255), "imagem_lateral" varchar(255), "imagem_posterior" varchar(255), "imagem_chassi" varchar(255), "imagem_motor" varchar(255), "imagem_adicional1" varchar(255), "imagem_adicional2" varchar(255), "imagem_adicional3" varchar(255), "imagem_adicional4" varchar(255), "imagem_adicional5" varchar(255), "created_at" timestamptz default CURRENT_TIMESTAMP, "updated_at" timestamptz default CURRENT_TIMESTAMP) - relation "pericia_veiculo" already exists,
Thu Aug 06 2020 15:25:12 GMT-0300 (Brasilia Standard Time),ReferenceError: neme is not defined,
